Baseball – Statistical_modeling
…
Training data contained 3455 data points and no incomplete rows.

── Operations 

• Centering and scaling for: HR, RBI, R | Trained

• Dummy variables from: <none> | Trained

• PCA extraction with: HR, RBI, R | Trained

pca_baked <- pca_prep |>
  bake(new_data = NULL)
pca_baked

# A tibble: 3,455 × 5
   Name            Year     PC1     PC2     PC3
   <chr>          <int>   <dbl>   <dbl>   <dbl>
 1 Kurt Abbott     1994 -1.51    0.345   0.335 
 2 Kurt Abbott     1995 -0.0500  0.319   0.192 
 3 Kurt Abbott     1996 -1.65    0.432   0.247 
 4 Bobby Abreu     1998  0.438   0.167  -0.138 
 5 Bobby Abreu     1999  2.13   -1.22   -0.124 
 6 Bobby Abreu     2000  1.76   -0.588   0.449 
 7 Benny Agbayani  1999 -1.01    0.631   0.385 
 8 Benny Agbayani  2000 -0.182   0.256   0.0678
 9 Mike Aldrete    1987 -0.911   0.193  -0.0998
10 Mike Aldrete    1988 -1.40    0.0965 -0.468 
# ℹ 3,445 more rows
…
Training data contained 3799 data points and no incomplete rows.

── Operations 

• Centering and scaling for: HR, RBI, R | Trained

• Dummy variables from: <none> | Trained

• PCA extraction with: HR, RBI, R | Trained

pca_baked_new <- pca_prep_new |>
  bake(new_data = NULL)
pca_baked_new

# A tibble: 3,799 × 5
   Name                Year   PC1     PC2     PC3
   <chr>              <int> <dbl>   <dbl>   <dbl>
 1 Reggie Abercrombie  2006 -2.18 -0.0632 -0.303 
 2 Brent Abernathy     2002 -1.81  0.198   0.292 
 3 Bobby Abreu         2001  3.15  0.636   0.0449
 4 Bobby Abreu         2002  1.57  0.855   0.0920
 5 Bobby Abreu         2003  1.87  0.610   0.589 
 6 Bobby Abreu         2004  2.98  0.731  -0.0433
 7 Bobby Abreu         2005  2.24  0.572   0.340 
 8 Bobby Abreu         2007  2.21  1.66    0.632 
 9 Bobby Abreu         2008  1.87  0.654   0.552 
10 Bobby Abreu         2009  1.57  0.743   0.971 
# ℹ 3,789 more rows
…
predictions_ridge_old <- ridge_fit_old |>
  broom::augment(new_data = test_old)
predictions_ridge_old |>
  dplyr::select(Name,
                Salary_ZScore,
    
    everything()
)

# A tibble: 667 × 30
   Name   Salary_ZScore  .pred  Year team_payroll    PA    BA    HR   age salary
   <chr>          <dbl>  <dbl> <int> <chr>        <dbl> <dbl> <int> <int>  <int>
 1 Adria…      -0.675   -0.562  2000 top            575 0.29     20    21 1   e6
 2 Al Co…      -0.413    0.404  1985 upper          487 0.265    14    33 4   e5
 3 Al Ne…      -0.725   -0.357  1990 lower          433 0.242     0    30 3.5 e5
 4 Al Ne…      -0.849   -0.467  1992 middle         289 0.22      0    32 2.6 e5
 5 Alan …       0.00952  0.446  1986 upper          653 0.277    21    28 5.67e5
 6 Alan …       1.44     0.635  1990 upper          637 0.304    14    32 1.80e6
 7 Alber…       0.103    0.683  1993 bottom         693 0.29     38    27 1.68e6
 8 Alber…       3.47     0.894  1997 upper          701 0.274    30    31 1   e7
 9 Alex …      -0.713   -0.174  1999 top            390 0.303     4    31 6.25e5
10 Alex …      -0.877   -0.694  1999 bottom         591 0.277    14    22 2.01e5
# ℹ 657 more rows
# ℹ 20 more variables: R <int>, RBI <int>, SlugPct <dbl>, OBP <dbl>,
#   BBRate <dbl>, SORate <dbl>, DoubleRate <dbl>, TripleRate <dbl>,
#   HRRate <dbl>, RRate <dbl>, RBIRate <dbl>, SBRate <dbl>,
#   SBSuccessRate <dbl>, PC_score <dbl>, PC1 <dbl>, PC2 <dbl>, PC3 <dbl>,
#   OPS <dbl>, bats <fct>, lgID <fct>
…
# A tibble: 1 × 3
  .metric .estimator .estimate
  <chr>   <chr>          <dbl>
1 rmse    standard       0.758

predictions_ridge_old_new <- ridge_fit_old |>
  broom::augment(new_data = test_new)
predictions_ridge_old_new |>
  dplyr::select(Name,
                Salary_ZScore,
    
    everything()
)

# A tibble: 728 × 30
   Name  Salary_ZScore   .pred  Year team_payroll    PA    BA    HR   age salary
   <chr>         <dbl>   <dbl> <int> <chr>        <dbl> <dbl> <int> <int>  <int>
 1 A. J…       -0.584  -0.0306  2013 top            448 0.238    10    32 2   e6
 2 A. J…       -0.342  -0.158   2005 upper          497 0.257    18    28 2.25e6
 3 A. J…        0.237   0.793   2012 upper          520 0.278    27    35 6   e6
 4 Aaro…       -0.171   0.280   2005 bottom         565 0.243    16    32 3   e6
 5 Aaro…       -0.846  -0.929   2016 top            361 0.217     8    26 5.74e5
 6 Aaro…       -0.147   0.155   2010 middle         580 0.205    26    28 4   e6
 7 Aaro…        0.0345 -0.431   2011 middle         429 0.225     6    29 5   e6
 8 Aaro…        0.146   0.634   2012 lower          668 0.302    26    30 5.50e6
 9 Aaro…        0.837   0.123   2014 lower          541 0.244    10    32 1.10e7
10 Aaro…       -0.769  -0.306   2004 lower          566 0.293     6    27 3   e5
# ℹ 718 more rows
# ℹ 20 more variables: R <int>, RBI <int>, SlugPct <dbl>, OBP <dbl>,
#   BBRate <dbl>, SORate <dbl>, DoubleRate <dbl>, TripleRate <dbl>,
#   HRRate <dbl>, RRate <dbl>, RBIRate <dbl>, SBRate <dbl>,
#   SBSuccessRate <dbl>, PC_score <dbl>, PC1 <dbl>, PC2 <dbl>, PC3 <dbl>,
#   OPS <dbl>, bats <fct>, lgID <fct>
…
predictions_ridge_new <- ridge_fit_new |>
  broom::augment(new_data = test_new)
predictions_ridge_new |>
  dplyr::select(
    Name,
    Salary_ZScore, 
    .pred,
    everything()
)

# A tibble: 728 × 30
   Name  Salary_ZScore   .pred  Year team_payroll    PA    BA    HR   age salary
   <chr>         <dbl>   <dbl> <int> <chr>        <dbl> <dbl> <int> <int>  <int>
 1 A. J…       -0.584  -0.0786  2013 top            448 0.238    10    32 2   e6
 2 A. J…       -0.342  -0.210   2005 upper          497 0.257    18    28 2.25e6
 3 A. J…        0.237   0.649   2012 upper          520 0.278    27    35 6   e6
 4 Aaro…       -0.171   0.146   2005 bottom         565 0.243    16    32 3   e6
 5 Aaro…       -0.846  -0.854   2016 top            361 0.217     8    26 5.74e5
 6 Aaro…       -0.147  -0.0641  2010 middle         580 0.205    26    28 4   e6
 7 Aaro…        0.0345 -0.501   2011 middle         429 0.225     6    29 5   e6
 8 Aaro…        0.146   0.504   2012 lower          668 0.302    26    30 5.50e6
 9 Aaro…        0.837   0.0298  2014 lower          541 0.244    10    32 1.10e7
10 Aaro…       -0.769  -0.327   2004 lower          566 0.293     6    27 3   e5
# ℹ 718 more rows
# ℹ 20 more variables: R <int>, RBI <int>, SlugPct <dbl>, OBP <dbl>,
#   BBRate <dbl>, SORate <dbl>, DoubleRate <dbl>, TripleRate <dbl>,
#   HRRate <dbl>, RRate <dbl>, RBIRate <dbl>, SBRate <dbl>,
#   SBSuccessRate <dbl>, PC_score <dbl>, PC1 <dbl>, PC2 <dbl>, PC3 <dbl>,
#   OPS <dbl>, bats <fct>, lgID <fct>

predictions_ridge_old_new |>
  dplyr::select(
    Name,
    Salary_ZScore, 
    .pred,
    everything()
)

# A tibble: 728 × 30
   Name  Salary_ZScore   .pred  Year team_payroll    PA    BA    HR   age salary
   <chr>         <dbl>   <dbl> <int> <chr>        <dbl> <dbl> <int> <int>  <int>
 1 A. J…       -0.584  -0.0306  2013 top            448 0.238    10    32 2   e6
 2 A. J…       -0.342  -0.158   2005 upper          497 0.257    18    28 2.25e6
 3 A. J…        0.237   0.793   2012 upper          520 0.278    27    35 6   e6
 4 Aaro…       -0.171   0.280   2005 bottom         565 0.243    16    32 3   e6
 5 Aaro…       -0.846  -0.929   2016 top            361 0.217     8    26 5.74e5
 6 Aaro…       -0.147   0.155   2010 middle         580 0.205    26    28 4   e6
 7 Aaro…        0.0345 -0.431   2011 middle         429 0.225     6    29 5   e6
 8 Aaro…        0.146   0.634   2012 lower          668 0.302    26    30 5.50e6
 9 Aaro…        0.837   0.123   2014 lower          541 0.244    10    32 1.10e7
10 Aaro…       -0.769  -0.306   2004 lower          566 0.293     6    27 3   e5
# ℹ 718 more rows
# ℹ 20 more variables: R <int>, RBI <int>, SlugPct <dbl>, OBP <dbl>,
#   BBRate <dbl>, SORate <dbl>, DoubleRate <dbl>, TripleRate <dbl>,
#   HRRate <dbl>, RRate <dbl>, RBIRate <dbl>, SBRate <dbl>,
#   SBSuccessRate <dbl>, PC_score <dbl>, PC1 <dbl>, PC2 <dbl>, PC3 <dbl>,
#   OPS <dbl>, bats <fct>, lgID <fct>
…
predictions_ridge_new_old <- ridge_fit_new |>
  broom::augment(new_data = test_old)
predictions_ridge_new_old |>
  dplyr::select(
    Name,
    Salary_ZScore, 
    .pred,
    everything()
)

# A tibble: 667 × 30
   Name   Salary_ZScore  .pred  Year team_payroll    PA    BA    HR   age salary
   <chr>          <dbl>  <dbl> <int> <chr>        <dbl> <dbl> <int> <int>  <int>
 1 Adria…      -0.675   -0.513  2000 top            575 0.29     20    21 1   e6
 2 Al Co…      -0.413    0.271  1985 upper          487 0.265    14    33 4   e5
 3 Al Ne…      -0.725   -0.445  1990 lower          433 0.242     0    30 3.5 e5
 4 Al Ne…      -0.849   -0.531  1992 middle         289 0.22      0    32 2.6 e5
 5 Alan …       0.00952  0.253  1986 upper          653 0.277    21    28 5.67e5
 6 Alan …       1.44     0.481  1990 upper          637 0.304    14    32 1.80e6
 7 Alber…       0.103    0.507  1993 bottom         693 0.29     38    27 1.68e6
 8 Alber…       3.47     0.666  1997 upper          701 0.274    30    31 1   e7
 9 Alex …      -0.713   -0.151  1999 top            390 0.303     4    31 6.25e5
10 Alex …      -0.877   -0.608  1999 bottom         591 0.277    14    22 2.01e5
# ℹ 657 more rows
# ℹ 20 more variables: R <int>, RBI <int>, SlugPct <dbl>, OBP <dbl>,
#   BBRate <dbl>, SORate <dbl>, DoubleRate <dbl>, TripleRate <dbl>,
#   HRRate <dbl>, RRate <dbl>, RBIRate <dbl>, SBRate <dbl>,
#   SBSuccessRate <dbl>, PC_score <dbl>, PC1 <dbl>, PC2 <dbl>, PC3 <dbl>,
#   OPS <dbl>, bats <fct>, lgID <fct>

predictions_ridge_old |>
  dplyr::select(
    Name,
    Salary_ZScore, 
    .pred,
    everything()
)

# A tibble: 667 × 30
   Name   Salary_ZScore  .pred  Year team_payroll    PA    BA    HR   age salary
   <chr>          <dbl>  <dbl> <int> <chr>        <dbl> <dbl> <int> <int>  <int>
 1 Adria…      -0.675   -0.562  2000 top            575 0.29     20    21 1   e6
 2 Al Co…      -0.413    0.404  1985 upper          487 0.265    14    33 4   e5
 3 Al Ne…      -0.725   -0.357  1990 lower          433 0.242     0    30 3.5 e5
 4 Al Ne…      -0.849   -0.467  1992 middle         289 0.22      0    32 2.6 e5
 5 Alan …       0.00952  0.446  1986 upper          653 0.277    21    28 5.67e5
 6 Alan …       1.44     0.635  1990 upper          637 0.304    14    32 1.80e6
 7 Alber…       0.103    0.683  1993 bottom         693 0.29     38    27 1.68e6
 8 Alber…       3.47     0.894  1997 upper          701 0.274    30    31 1   e7
 9 Alex …      -0.713   -0.174  1999 top            390 0.303     4    31 6.25e5
10 Alex …      -0.877   -0.694  1999 bottom         591 0.277    14    22 2.01e5
# ℹ 657 more rows
# ℹ 20 more variables: R <int>, RBI <int>, SlugPct <dbl>, OBP <dbl>,
#   BBRate <dbl>, SORate <dbl>, DoubleRate <dbl>, TripleRate <dbl>,
#   HRRate <dbl>, RRate <dbl>, RBIRate <dbl>, SBRate <dbl>,
#   SBSuccessRate <dbl>, PC_score <dbl>, PC1 <dbl>, PC2 <dbl>, PC3 <dbl>,
#   OPS <dbl>, bats <fct>, lgID <fct>
…
